
Natalie_Yakoubenova
-
Interpolation: Bilinear
Generic HRTF

TEST CASE: Test_A1_1 - 8deg angle - 1 source, 1 distractor, side by side
 - Correct
 - Time til answer: 9.639004 seconds

TEST CASE: Test_A4_4 - 15deg angle - 1 source, 1 distractor, side by side
 - Correct
 - Time til answer: 2.308922 seconds

TEST CASE: Test_B2_6 - 5deg angle - 1 source, 2 distractors, triangle vertexes
 - Incorrect
 - Time til answer: 9.217377 seconds
Answer coord: (0.2, 1.2, 3.4)  |||  Source coord: (0.0, 1.4, 3.5)  |||  Angle: 4.258735°

TEST CASE: Test_B4_8 - 15deg angle - 1 source, 2 distractors, triangle vertexes
 - Correct
 - Time til answer: 7.496841 seconds

TEST CASE: Test_C1_9 - 8deg angle - 1 source, 3 distractors, triangle vertexes + center
 - Correct
 - Time til answer: 15.28078 seconds

TEST CASE: Test_C3_11 - 3deg angle - 1 source, 3 distractors, triangle vertexes + center
 - Correct
 - Time til answer: 20.25731 seconds

TEST CASE: Test_D3_15 - 3deg angle - 1 source, 3 distractors, square
 - Correct
 - Time til answer: 12.26133 seconds

TEST CASE: Test_D4_16 - 15deg angle - 1 source, 3 distractors, square
 - Incorrect
 - Time til answer: 7.885201 seconds
Answer coord: (-0.4, 0.9, 3.4)  |||  Source coord: (-0.5, 1.8, 3.5)  |||  Angle: 11.93545°

TEST CASE: Test_E1_17 - 8 deg - 1 source, 3 distractors, specified X movement, square
 - Incorrect
 - Time til answer: 12.24007 seconds
Answer coord: (-1.0, 0.9, 3.4)  |||  Source coord: (-1.0, 1.3, 3.5)  |||  Angle: 6.049543°

TEST CASE: Test_E4_20 - 1 source, 6 distractors, random X movement
 - Incorrect
 - Time til answer: 12.77179 seconds
Answer coord: (-1.6, 0.7, 3.5)  |||  Source coord: (-1.1, 1.6, 3.5)  |||  Angle: 14.33348°

TEST CASE: Test_F2_22 - 1 source, 6 distractors, random XY movement
 - Correct
 - Time til answer: 17.63618 seconds

TEST CASE: Test_H2_26 - 1 source + 6 distractors - The influence of source size 2
 - Correct
 - Time til answer: 12.61531 seconds

TEST CASE: Test_J2_30 - 3 sources, 7 distractors, moving distractor audio
 - Incorrect
 - Time til answer: 26.0336 seconds
Answer coord: (-0.1, 1.1, 2.6)  |||  Source coord: (-0.4, 1.7, 3.3)  |||  Angle: 5.901695°

TEST CASE: Test_J3_31 - 2 sources, 6 distractors, static distractor audio behind the player, with rain
 - Correct
 - Time til answer: 18.10295 seconds

Test duration: 3 min 13.7 seconds
--------------------------END OF TEST--------------------------
--------------------------TEST TERMINATED--------------------------
